gpio_18xx_43xx.h:95:20:Chip_GPIO_SetPinState	16	static
gpio_18xx_43xx.h:154:20:Chip_GPIO_SetPinDIROutput	16	static
exampleFreeRTOSTD3_01.c:14:13:Task1	24	static
exampleFreeRTOSTD3_01.c:42:13:Task2	24	static
exampleFreeRTOSTD3_01.c:59:13:Task3	16	static
exampleFreeRTOSTD3_01.c:94:5:main	32	static
